One4All LA6
…
airport_size<-COflights%>%group_by(ORIGIN)%>%summarize(size=n(), tot_del=mean(DEP_DELAY,
                                                                              na.rm=T),
                                                       sec_del=mean(SECURITY_DELAY,
                                                                             na.rm=T),
                                                       nas_del=mean(NAS_DELAY,
                                                                    na.rm=T),
                                                       wthr_del=mean(WEATHER_DELAY,
                                                                     na.rm=T),
                                                       car_del=mean(CARRIER_DELAY,
                                                                    na.rm=T))%>%
  rename(airport=ORIGIN)
airport_size

## # A tibble: 140 x 7
##    airport  size tot_del sec_del nas_del wthr_del car_del
##    <chr>   <int>   <dbl>   <dbl>   <dbl>    <dbl>   <dbl>
##  1 ABQ      1954    5.40  0        10.3     1.79    11.4 
##  2 ALB       239   18.9   0         9.89    1.27     8.21
##  3 AMA        34   29.1   0        17.2     0       48.4 
##  4 ANC       438    9.82  0         5.61    0.235   49.0 
##  5 ASE      5238   19.9   0.0182   18.1     6.23    24.8 
##  6 ATL      6448   10.4   0.0709   12.5     6.11    23.7 
##  7 AUS      3058    7.55  0.0629    9.98    2.52    12.6 
##  8 BDL       763    3.07  0        14.9     5.45    17.7 
##  9 BFL       676    7.50  0         8.51    1.87    55.0 
## 10 BHM       418    4.59  0        13.7     6.68    54.1 
## # ... with 130 more rows
…
airport_size%>%filter(size>15000)

## # A tibble: 1 x 7
##   airport   size tot_del sec_del nas_del wthr_del car_del
##   <chr>    <int>   <dbl>   <dbl>   <dbl>    <dbl>   <dbl>
## 1 DEN     223165    8.75  0.0257    14.9     1.88    16.7

Since the large outlier represents Denver, and this is biased by the fact that this airport is where our data is from

airport_size<-airport_size%>%filter(airport!="DEN")
airport_size%>%arrange(desc(size))

## # A tibble: 139 x 7
##    airport  size tot_del sec_del nas_del wthr_del car_del
##    <chr>   <int>   <dbl>   <dbl>   <dbl>    <dbl>   <dbl>
##  1 LAX     10526   12.3   0.363    11.1     1.34     19.7
##  2 PHX      9442    6.91  0.0611    9.57    1.60     18.9
##  3 SLC      9412    7.17  0        12.4     4.10     28.9
##  4 COS      9229   10.3   0.0361   18.5     3.29     35.8
##  5 ORD      9108   11.3   0.0118   15.1     3.55     19.2
##  6 DFW      8140   10.2   0.0268   12.9     3.83     20.8
##  7 SFO      7687   14.3   0.0259   10.7     0.592    14.2
##  8 LAS      7463    7.34  0        13.6     1.48     13.4
##  9 SEA      6783    6.48  0.229     9.97    1.67     14.4
## 10 ATL      6448   10.4   0.0709   12.5     6.11     23.7
## # ... with 129 more rows
…
