LA15 one4all
…
tdata<-tdata%>%mutate(year=as.double(year),GDPpc=as.double(GDPpc),Literacy=as.double(Literacy),Life_exp=as.double(Life_exp),HIV=as.double(HIV))

## Warning: NAs introduced by coercion

## Warning: NAs introduced by coercion

## Warning: NAs introduced by coercion

## Warning: NAs introduced by coercion

tdata

## # A tibble: 5,208 x 6
##    Country      year GDPpc Literacy Life_exp   HIV
##    <chr>       <dbl> <dbl>    <dbl>    <dbl> <dbl>
##  1 Afghanistan  1995   NA        NA     53.4  26  
##  2 Afghanistan  1996   NA        NA     53.9  26.4
##  3 Afghanistan  1997   NA        NA     54.4  26.9
##  4 Afghanistan  1998   NA        NA     54.9  27.3
##  5 Afghanistan  1999   NA        NA     55.4  27.6
##  6 Afghanistan  2001   NA        NA     55.8  27.8
##  7 Afghanistan  2002   NA        NA     56.3  28  
##  8 Afghanistan  2003  179.       NA     56.8  28.1
##  9 Afghanistan  2004  191.       NA     57.3  28.2
## 10 Afghanistan  2005  211.       NA     57.8  28.2
## # ... with 5,198 more rows
…
This question is important to consider because it reflects the relationship between education (using the proxy of literacy rate) and the average life expectancy of the citizens of a country. It is important to understand this because it can illuminate unexpected benefits that education might have. Of course, both literacy and Life expectancy are correlated with GDP per capita, so in order to avoid just making the obvious conclusion that GDP has these correaltions, I used lienar models to control for this fact. It is important to understand this relationship, because it offers a way for countries to increase the health of their citizens, which can improve their economies directly from increased education, as well as healthier workers.

New Tools:

I used linear modeling to remove the obvious relationship between GDP and life expectancy so I could explore the relationship between literacy and life expectancy without having to worry about this intermediate variable. Then I used a permutation test to see if there was a difference in literacy between the top and bottom halves of the countries by life expectancy to see if literacy was related to life expectancy. I further used a permutation correlation test to test to see if there was a correlation.

Using Linear Models to Gain Insight

bdata<-tdata%>%select(-HIV)

bmodel<-lm(Life_exp~GDPpc,data=bdata)
bdata<-add_residuals(bdata,model=bmodel,var="resid_le")
bdata

## # A tibble: 5,208 x 6
##    Country      year GDPpc Literacy Life_exp resid_le
##    <chr>       <dbl> <dbl>    <dbl>    <dbl>    <dbl>
##  1 Afghanistan  1995   NA        NA     53.4    NA   
##  2 Afghanistan  1996   NA        NA     53.9    NA   
##  3 Afghanistan  1997   NA        NA     54.4    NA   
##  4 Afghanistan  1998   NA        NA     54.9    NA   
##  5 Afghanistan  1999   NA        NA     55.4    NA   
##  6 Afghanistan  2001   NA        NA     55.8    NA   
##  7 Afghanistan  2002   NA        NA     56.3    NA   
##  8 Afghanistan  2003  179.       NA     56.8    -8.94
##  9 Afghanistan  2004  191.       NA     57.3    -8.46
## 10 Afghanistan  2005  211.       NA     57.8    -7.96
## # ... with 5,198 more rows
…
