Lab 5
…
Summary of Milk Production for My Birth Year (1998)

milk%>% filter(year==1998) %>% mutate(milk_million=milk_produced/1000000)%>%group_by(state)%>%summarize(average=mean(milk_million),median=median(milk_million))%>%as_tibble()%>%print()

## # A tibble: 50 x 3
##    state       average median
##    <fct>         <dbl>  <dbl>
##  1 Alabama         386    386
##  2 Alaska           14     14
##  3 Arizona        2680   2680
##  4 Arkansas        540    540
##  5 California    27620  27620
##  6 Colorado       1689   1689
##  7 Connecticut     529    529
##  8 Delaware        159    159
##  9 Florida        2337   2337
## 10 Georgia        1437   1437
## # ... with 40 more rows
…
