One4All_LA5
…
milk%>%filter(year==1998)%>% group_by(state)%>% summarise(milk_million=milk_million)%>%arrange(desc(milk_million))%>%as_tibble()%>%print()

## # A tibble: 50 x 2
##    state        milk_million
##    <fct>               <dbl>
##  1 California          27620
##  2 Wisconsin           22842
##  3 New York            11750
##  4 Pennsylvania        10847
##  5 Minnesota            9275
##  6 Idaho                5765
##  7 Texas                5605
##  8 Michigan             5365
##  9 Washington           5326
## 10 Ohio                 4410
## #  with 40 more rows
…
Summary of Average Milk Production by State in 1999

milk %>% mutate(mm = milk_produced/1000000) %>% filter(year == 1999) %>% group_by(state) %>% summarize(average=mean(mm),median=median(mm))%>%as_tibble()%>%print()

## # A tibble: 50 x 3
##    state       average median
##    <fct>         <dbl>  <dbl>
##  1 Alabama         376    376
##  2 Alaska           14     14
##  3 Arizona        2931   2931
##  4 Arkansas        520    520
##  5 California    30444  30444
##  6 Colorado       1728   1728
##  7 Connecticut     520    520
##  8 Delaware        145    145
##  9 Florida        2398   2398
## 10 Georgia        1449   1449
## #  with 40 more rows
…
Average Milk production by state in 1997

milk %>% filter(year == 1997) %>% mutate(milk_millions=(milk_produced/1000000)) %>% summarize (mean(milk_millions), median(milk_millions))

##   mean(milk_millions) median(milk_millions)
## 1             3121.82                  1436

As seen from the data above, the average milk produced per state in 1997 was 3121.82 million pounds of milk and the median amount of milk produced was 1436 million pounds of milk.

State that produced the most milk in 1997

milk %>% filter(year == 1997) %>% mutate(milk_millions=(milk_produced/1000000)) %>% group_by(state) %>% summarise(milk_produced_millions=max(milk_millions)) %>% arrange(desc(milk_produced_millions))

## # A tibble: 50 x 2
##    state        milk_produced_millions
##    <fct>                         <dbl>
##  1 California                    27582
##  2 Wisconsin                     22368
##  3 New York                      11530
##  4 Pennsylvania                  10662
##  5 Minnesota                      9210
##  6 Texas                          5768
##  7 Michigan                       5410
##  8 Washington                     5305
##  9 Idaho                          5193
## 10 Ohio                           4415
## #  with 40 more rows

As seen from the data above, California produced the most milk in 1997, producing 27,582 million pounds.

State that produced the least milk in 1997

milk %>% filter(year == 1997) %>% mutate(milk_millions=(milk_produced/1000000)) %>% group_by(state) %>% summarise(milk_produced_millions=max(milk_millions)) %>% arrange(milk_produced_millions)

## # A tibble: 50 x 2
##    state          milk_produced_millions
##    <fct>                           <dbl>
##  1 Alaska                             15
##  2 Rhode Island                       32
##  3 Wyoming                            84
##  4 Hawaii                            123
##  5 Delaware                          148
##  6 West Virginia                     266
##  7 Montana                           295
##  8 New Jersey                        299
##  9 New Hampshire                     328
## 10 South Carolina                    397
## #  with 40 more rows
…
State that produced the most milk in 1999

## # A tibble: 50 x 2
##    state        most_milk
##    <fct>            <dbl>
##  1 California       30444
##  2 Wisconsin        23071
##  3 New York         12082
##  4 Pennsylvania     10931
##  5 Minnesota         9478
##  6 Idaho             6453
##  7 Texas             5620
##  8 Washington        5535
##  9 Michigan          5455
## 10 New Mexico        4724
## #  with 40 more rows

State that produced the least milk in 1999

## # A tibble: 50 x 2
##    state          least_milk
##    <fct>               <dbl>
##  1 Alaska                 14
##  2 Rhode Island           31
##  3 Wyoming                80
##  4 Hawaii                120
##  5 Delaware              145
##  6 West Virginia         275
##  7 New Jersey            280
##  8 Montana               303
##  9 New Hampshire         321
## 10 South Carolina        369
## #  with 40 more rows
…
milk%>%filter(year==1998)%>% group_by(state)%>% summarise(milk_million=milk_million)%>%arrange(desc(milk_million))%>%as_tibble()%>%print()

## # A tibble: 50 x 2
##    state        milk_million
##    <fct>               <dbl>
##  1 California          27620
##  2 Wisconsin           22842
##  3 New York            11750
##  4 Pennsylvania        10847
##  5 Minnesota            9275
##  6 Idaho                5765
##  7 Texas                5605
##  8 Michigan             5365
##  9 Washington           5326
## 10 Ohio                 4410
## # ... with 40 more rows
…
Average and median across all states

milk%>% filter(year==1998) %>% group_by(year)%>%summarize(average=mean(milk_million),median=median(milk_million))%>%as_tibble()%>%print()

## # A tibble: 1 x 3
##    year average median
##   <dbl>   <dbl>  <dbl>
## 1  1998   3145.  1412.

Average and median for each state during my birthyear, which since its for a single year is just the amount of milk produced by the state

milk%>% filter(year==1998) %>% group_by(state)%>%summarize(average=mean(milk_million),median=median(milk_million))%>%as_tibble()%>%print()

## # A tibble: 50 x 3
##    state       average median
##    <fct>         <dbl>  <dbl>
##  1 Alabama         386    386
##  2 Alaska           14     14
##  3 Arizona        2680   2680
##  4 Arkansas        540    540
##  5 California    27620  27620
##  6 Colorado       1689   1689
##  7 Connecticut     529    529
##  8 Delaware        159    159
##  9 Florida        2337   2337
## 10 Georgia        1437   1437
## # ... with 40 more rows
…
Summary of Average Milk Production by State in 1999

milk %>% mutate(mm = milk_produced/1000000) %>% filter(year == 1999) %>% group_by(state) %>% summarize(average=mean(mm),median=median(mm))%>%as_tibble()%>%print()

## # A tibble: 50 x 3
##    state       average median
##    <fct>         <dbl>  <dbl>
##  1 Alabama         376    376
##  2 Alaska           14     14
##  3 Arizona        2931   2931
##  4 Arkansas        520    520
##  5 California    30444  30444
##  6 Colorado       1728   1728
##  7 Connecticut     520    520
##  8 Delaware        145    145
##  9 Florida        2398   2398
## 10 Georgia        1449   1449
## # ... with 40 more rows
…
Average Milk production by state in 1997

milk %>% filter(year == 1997) %>% mutate(milk_millions=(milk_produced/1000000)) %>% summarize (mean(milk_millions), median(milk_millions))

##   mean(milk_millions) median(milk_millions)
## 1             3121.82                  1436

As seen from the data above, the average milk produced per state in 1997 was 3121.82 million pounds of milk and the median amount of milk produced was 1436 million pounds of milk.

State that produced the most milk in 1997

milk %>% filter(year == 1997) %>% mutate(milk_millions=(milk_produced/1000000)) %>% group_by(state) %>% summarise(milk_produced_millions=max(milk_millions)) %>% arrange(desc(milk_produced_millions))

## # A tibble: 50 x 2
##    state        milk_produced_millions
##    <fct>                         <dbl>
##  1 California                    27582
##  2 Wisconsin                     22368
##  3 New York                      11530
##  4 Pennsylvania                  10662
##  5 Minnesota                      9210
##  6 Texas                          5768
##  7 Michigan                       5410
##  8 Washington                     5305
##  9 Idaho                          5193
## 10 Ohio                           4415
## # ... with 40 more rows

As seen from the data above, California produced the most milk in 1997, producing 27,582 million pounds.

State that produced the least milk in 1997

milk %>% filter(year == 1997) %>% mutate(milk_millions=(milk_produced/1000000)) %>% group_by(state) %>% summarise(milk_produced_millions=max(milk_millions)) %>% arrange(milk_produced_millions)

## # A tibble: 50 x 2
##    state          milk_produced_millions
##    <fct>                           <dbl>
##  1 Alaska                             15
##  2 Rhode Island                       32
##  3 Wyoming                            84
##  4 Hawaii                            123
##  5 Delaware                          148
##  6 West Virginia                     266
##  7 Montana                           295
##  8 New Jersey                        299
##  9 New Hampshire                     328
## 10 South Carolina                    397
## # ... with 40 more rows
…
